[{"name": "v0.4.1",
 "message": "v0.4.1",
 "target": "c06eae1694c526a797d47960ab78bf4729af6336",
 "commit": {"id": "c4863f5d4af58756944ef3bcc15a188f89148bcb",
            "short_id": "c4863f5d",
            "created_at": "2020-08-21T13:04:53.000+02:00",
            "parent_ids": ["8558d5bb65191886e36ddf4713e873475dfbe38f"],
            "title": "Update to molecule v3",
            "message": "Update to molecule v3\n",
            "author_name": "Benjamin Bertrand",
            "author_email": "benjamin.bertrand@ess.eu",
            "authored_date": "2020-08-21T13:04:53.000+02:00",
            "committer_name": "Benjamin Bertrand",
            "committer_email": "benjamin.bertrand@ess.eu",
            "committed_date": "2020-08-21T13:04:53.000+02:00",
            "web_url": "https://gitlab.com/ics-ansible-galaxy/ics-ans-role-conda-bot/-/commit/c4863f5d4af58756944ef3bcc15a188f89148bcb"},
 "release": null,
 "protected": false},
{"name": "v0.4.0",
 "message": "v0.4.0",
 "target": "0c7263dc7128d229bc122e474ad25d2a88c75cc0",
 "commit": {"id": "58e9991d474b69a7e672102e20125986477183d5",
            "short_id": "58e9991d",
            "created_at": "2020-05-25T10:45:09.000+02:00",
            "parent_ids": ["197dc2c1f526fc47d236122f5b4c4ff5855605fc"],
            "title": "Update role after conda-bot refactoring",
            "message": "Update role after conda-bot refactoring\n"
                       "\n"
                       "- remove redis and workers\n"
                       "- use gunicorn with uvloop\n"
                       "\n"
                       "JIRA INFRA-1927\n",
            "author_name": "Benjamin Bertrand",
            "author_email": "benjamin.bertrand@ess.eu",
            "authored_date": "2020-05-25T09:51:54.000+02:00",
            "committer_name": "Benjamin Bertrand",
            "committer_email": "benjamin.bertrand@ess.eu",
            "committed_date": "2020-05-25T10:45:09.000+02:00",
            "web_url": "https://gitlab.com/ics-ansible-galaxy/ics-ans-role-conda-bot/-/commit/58e9991d474b69a7e672102e20125986477183d5"},
 "release": null,
 "protected": false},
{"name": "v0.3.0",
 "message": "v0.3.0",
 "target": "a37e027d3faa3709490d10713779463847a421e3",
 "commit": {"id": "197dc2c1f526fc47d236122f5b4c4ff5855605fc",
            "short_id": "197dc2c1",
            "created_at": "2019-07-19T14:14:14.000+02:00",
            "parent_ids": ["735e3de96d7207eb396f0c911cc58be27768680f"],
            "title": "Remove warning about port being converted to string",
            "message": "Remove warning about port being converted to string\n"
                       "\n"
                       "[WARNING]: The value 6379 (type int) in a string field "
                       "was converted to\n"
                       "u"6379" (type string). If this does not look like what "
                       "you expect, quote the\n"
                       "entire value to ensure it does not change.\n",
            "author_name": "Benjamin Bertrand",
            "author_email": "benjamin.bertrand@example.org",
            "authored_date": "2019-07-19T14:14:14.000+02:00",
            "committer_name": "Benjamin Bertrand",
            "committer_email": "benjamin.bertrand@example.org",
            "committed_date": "2019-07-19T14:14:14.000+02:00",
            "web_url": "https://gitlab.com/ics-ansible-galaxy/ics-ans-role-conda-bot/-/commit/197dc2c1f526fc47d236122f5b4c4ff5855605fc"},
 "release": null,
 "protected": false},
{"name": "v0.2.0",
 "message": "v0.2.0",
 "target": "22d9238bc2b7a963798326260f311c5130413e57",
 "commit": {"id": "4b8a2ed346f85c516d0b922feb2354a8cac00e7b",
            "short_id": "4b8a2ed3",
            "created_at": "2019-06-13T10:11:52.000+02:00",
            "parent_ids": ["dea1696128dc8467026ed48976933ec158c3f98c"],
            "title": "Add conda_bot_recipe_namespace variable",
            "message": "Add conda_bot_recipe_namespace variable\n"
                       "\n"
                       "Allow to override the RECIPE_NAMESPACE env variable "
                       "used to look\n"
                       "for conda recipes in GitLab.\n",
            "author_name": "Benjamin Bertrand",
            "author_email": "benjamin.bertrand@example.org",
            "authored_date": "2019-06-13T10:11:52.000+02:00",
            "committer_name": "Benjamin Bertrand",
            "committer_email": "benjamin.bertrand@example.org",
            "committed_date": "2019-06-13T10:11:52.000+02:00",
            "web_url": "https://gitlab.com/ics-ansible-galaxy/ics-ans-role-conda-bot/-/commit/4b8a2ed346f85c516d0b922feb2354a8cac00e7b"},
 "release": null,
 "protected": false},
{"name": "v0.1.0",
 "message": "v0.1.0",
 "target": "192ebeed94ab592b45007c3629a002fefbf2715c",
 "commit": {"id": "dea1696128dc8467026ed48976933ec158c3f98c",
            "short_id": "dea16961",
            "created_at": "2019-06-10T13:43:55.000+02:00",
            "parent_ids": [],
            "title": "Initial commit",
            "message": "Initial commit\n",
            "author_name": "Benjamin Bertrand",
            "author_email": "benjamin.bertrand@example.org",
            "authored_date": "2019-06-10T13:29:28.000+02:00",
            "committer_name": "Benjamin Bertrand",
            "committer_email": "benjamin.bertrand@example.org",
            "committed_date": "2019-06-10T13:43:55.000+02:00",
            "web_url": "https://gitlab.com/ics-ansible-galaxy/ics-ans-role-conda-bot/-/commit/dea1696128dc8467026ed48976933ec158c3f98c"},
 "release": null,
 "protected": false}
]
