{
  "id": 553,
  "name": "my-project",
  "description": "",
  "web_url": "https://gitlab.com/test-group/my-project",
  "avatar_url": null,
  "git_ssh_url": "git@gitlab.com:test-group/my-project.git",
  "git_http_url": "https://gitlab.com/test-group/my-project.git",
  "namespace": "test-group",
  "visibility_level": 0,
  "path_with_namespace": "test-group/my-project",
  "default_branch": "master",
  "ci_config_path": null,
  "homepage": "https://gitlab.com/test-group/my-project",
  "url": "git@gitlab.com:test-group/my-project.git",
  "ssh_url": "git@gitlab.com:test-group/my-project.git",
  "http_url": "https://gitlab.com/test-group/my-project.git"
}
